src/vhdl/vhdl.test.log
gpeg_engine.vhd:238:11:@75ns:(report note): LOAD_OP: bc_offset=0 opcode=0x00040382 isize=8
gpeg_engine.vhd:420:1:@125ns:(report note): CALL
gpeg_engine.vhd:420:1:@145ns:(report note): CALL
gpeg_engine.vhd:539:13:@145ns:(report note): EXEC done: opcode=0x00040382 bc_off=0 inp_off=0 v_failed=false sp=1
gpeg_engine.vhd:238:11:@175ns:(report note): LOAD_OP: bc_offset=16 opcode=0x00040382 isize=8
gpeg_engine.vhd:420:1:@225ns:(report note): CALL
gpeg_engine.vhd:420:1:@245ns:(report note): CALL
gpeg_engine.vhd:539:13:@245ns:(report note): EXEC done: opcode=0x00040382 bc_off=16 inp_off=0 v_failed=false sp=2
gpeg_engine.vhd:238:11:@275ns:(report note): LOAD_OP: bc_offset=412 opcode=0x00040382 isize=8
gpeg_engine.vhd:420:1:@325ns:(report note): CALL
gpeg_engine.vhd:420:1:@345ns:(report note): CALL
gpeg_engine.vhd:539:13:@345ns:(report note): EXEC done: opcode=0x00040382 bc_off=412 inp_off=0 v_failed=false sp=3
gpeg_engine.vhd:238:11:@375ns:(report note): LOAD_OP: bc_offset=308 opcode=0x00040393 isize=8
gpeg_engine.vhd:445:1:@425ns:(report note): CATCH
gpeg_engine.vhd:445:1:@445ns:(report note): CATCH
gpeg_engine.vhd:539:13:@445ns:(report note): EXEC done: opcode=0x00040393 bc_off=308 inp_off=0 v_failed=false sp=4
gpeg_engine.vhd:238:11:@475ns:(report note): LOAD_OP: bc_offset=316 opcode=0x00040393 isize=8
gpeg_engine.vhd:445:1:@525ns:(report note): CATCH
gpeg_engine.vhd:445:1:@545ns:(report note): CATCH
gpeg_engine.vhd:539:13:@545ns:(report note): EXEC done: opcode=0x00040393 bc_off=316 inp_off=0 v_failed=false sp=5
gpeg_engine.vhd:238:11:@575ns:(report note): LOAD_OP: bc_offset=324 opcode=0x00040393 isize=8
gpeg_engine.vhd:445:1:@625ns:(report note): CATCH
gpeg_engine.vhd:445:1:@645ns:(report note): CATCH
gpeg_engine.vhd:539:13:@645ns:(report note): EXEC done: opcode=0x00040393 bc_off=324 inp_off=0 v_failed=false sp=6
gpeg_engine.vhd:238:11:@675ns:(report note): LOAD_OP: bc_offset=332 opcode=0x00040382 isize=8
gpeg_engine.vhd:420:1:@725ns:(report note): CALL
gpeg_engine.vhd:420:1:@745ns:(report note): CALL
gpeg_engine.vhd:539:13:@745ns:(report note): EXEC done: opcode=0x00040382 bc_off=332 inp_off=0 v_failed=false sp=7
gpeg_engine.vhd:238:11:@775ns:(report note): LOAD_OP: bc_offset=144 opcode=0x000403D7 isize=8
gpeg_engine.vhd:375:1:@855ns:(report note): CHAR
gpeg_engine.vhd:539:13:@855ns:(report note): EXEC done: opcode=0x000403D7 bc_off=144 inp_off=0 v_failed=true sp=7
gpeg_engine.vhd:238:11:@935ns:(report note): LOAD_OP: bc_offset=348 opcode=0x00040382 isize=8
gpeg_engine.vhd:420:1:@985ns:(report note): CALL
gpeg_engine.vhd:420:1:@1005ns:(report note): CALL
gpeg_engine.vhd:539:13:@1005ns:(report note): EXEC done: opcode=0x00040382 bc_off=348 inp_off=0 v_failed=false sp=6
gpeg_engine.vhd:238:11:@1035ns:(report note): LOAD_OP: bc_offset=228 opcode=0x000403D7 isize=8
gpeg_engine.vhd:375:1:@1115ns:(report note): CHAR
gpeg_engine.vhd:539:13:@1115ns:(report note): EXEC done: opcode=0x000403D7 bc_off=228 inp_off=0 v_failed=true sp=6
gpeg_engine.vhd:238:11:@1195ns:(report note): LOAD_OP: bc_offset=364 opcode=0x00040382 isize=8
gpeg_engine.vhd:420:1:@1245ns:(report note): CALL
gpeg_engine.vhd:420:1:@1265ns:(report note): CALL
gpeg_engine.vhd:539:13:@1265ns:(report note): EXEC done: opcode=0x00040382 bc_off=364 inp_off=0 v_failed=false sp=5
gpeg_engine.vhd:238:11:@1295ns:(report note): LOAD_OP: bc_offset=52 opcode=0x002003CA isize=36
gpeg_engine.vhd:407:1:@1375ns:(report note): SET
gpeg_engine.vhd:539:13:@1375ns:(report note): EXEC done: opcode=0x002003CA bc_off=52 inp_off=0 v_failed=true sp=5
gpeg_engine.vhd:238:11:@1455ns:(report note): LOAD_OP: bc_offset=380 opcode=0x000003A0 isize=4
gpeg_engine.vhd:435:1:@1485ns:(report note): RET
gpeg_engine.vhd:539:13:@1485ns:(report note): EXEC done: opcode=0x000003A0 bc_off=380 inp_off=0 v_failed=false sp=2
gpeg_engine.vhd:238:11:@1515ns:(report note): LOAD_OP: bc_offset=420 opcode=0x00040382 isize=8
gpeg_engine.vhd:420:1:@1565ns:(report note): CALL
gpeg_engine.vhd:420:1:@1585ns:(report note): CALL
gpeg_engine.vhd:539:13:@1585ns:(report note): EXEC done: opcode=0x00040382 bc_off=420 inp_off=0 v_failed=false sp=3
gpeg_engine.vhd:238:11:@1615ns:(report note): LOAD_OP: bc_offset=772 opcode=0x00040382 isize=8
gpeg_engine.vhd:420:1:@1665ns:(report note): CALL
gpeg_engine.vhd:420:1:@1685ns:(report note): CALL
gpeg_engine.vhd:539:13:@1685ns:(report note): EXEC done: opcode=0x00040382 bc_off=772 inp_off=0 v_failed=false sp=4
gpeg_engine.vhd:238:11:@1715ns:(report note): LOAD_OP: bc_offset=308 opcode=0x00040393 isize=8
gpeg_engine.vhd:445:1:@1765ns:(report note): CATCH
gpeg_engine.vhd:445:1:@1785ns:(report note): CATCH
gpeg_engine.vhd:539:13:@1785ns:(report note): EXEC done: opcode=0x00040393 bc_off=308 inp_off=0 v_failed=false sp=5
gpeg_engine.vhd:238:11:@1815ns:(report note): LOAD_OP: bc_offset=316 opcode=0x00040393 isize=8
gpeg_engine.vhd:445:1:@1865ns:(report note): CATCH
gpeg_engine.vhd:445:1:@1885ns:(report note): CATCH
gpeg_engine.vhd:539:13:@1885ns:(report note): EXEC done: opcode=0x00040393 bc_off=316 inp_off=0 v_failed=false sp=6
gpeg_engine.vhd:238:11:@1915ns:(report note): LOAD_OP: bc_offset=324 opcode=0x00040393 isize=8
gpeg_engine.vhd:445:1:@1965ns:(report note): CATCH
gpeg_engine.vhd:445:1:@1985ns:(report note): CATCH
gpeg_engine.vhd:539:13:@1985ns:(report note): EXEC done: opcode=0x00040393 bc_off=324 inp_off=0 v_failed=false sp=7
gpeg_engine.vhd:238:11:@2015ns:(report note): LOAD_OP: bc_offset=332 opcode=0x00040382 isize=8
gpeg_engine.vhd:420:1:@2065ns:(report note): CALL
gpeg_engine.vhd:420:1:@2085ns:(report note): CALL
gpeg_engine.vhd:539:13:@2085ns:(report note): EXEC done: opcode=0x00040382 bc_off=332 inp_off=0 v_failed=false sp=8
gpeg_engine.vhd:238:11:@2115ns:(report note): LOAD_OP: bc_offset=144 opcode=0x000403D7 isize=8
gpeg_engine.vhd:375:1:@2195ns:(report note): CHAR
gpeg_engine.vhd:539:13:@2195ns:(report note): EXEC done: opcode=0x000403D7 bc_off=144 inp_off=0 v_failed=true sp=8
gpeg_engine.vhd:238:11:@2275ns:(report note): LOAD_OP: bc_offset=348 opcode=0x00040382 isize=8
gpeg_engine.vhd:420:1:@2325ns:(report note): CALL
gpeg_engine.vhd:420:1:@2345ns:(report note): CALL
gpeg_engine.vhd:539:13:@2345ns:(report note): EXEC done: opcode=0x00040382 bc_off=348 inp_off=0 v_failed=false sp=7
gpeg_engine.vhd:238:11:@2375ns:(report note): LOAD_OP: bc_offset=228 opcode=0x000403D7 isize=8
gpeg_engine.vhd:375:1:@2455ns:(report note): CHAR
gpeg_engine.vhd:539:13:@2455ns:(report note): EXEC done: opcode=0x000403D7 bc_off=228 inp_off=0 v_failed=true sp=7
gpeg_engine.vhd:238:11:@2535ns:(report note): LOAD_OP: bc_offset=364 opcode=0x00040382 isize=8
gpeg_engine.vhd:420:1:@2585ns:(report note): CALL
gpeg_engine.vhd:420:1:@2605ns:(report note): CALL
gpeg_engine.vhd:539:13:@2605ns:(report note): EXEC done: opcode=0x00040382 bc_off=364 inp_off=0 v_failed=false sp=6
gpeg_engine.vhd:238:11:@2635ns:(report note): LOAD_OP: bc_offset=52 opcode=0x002003CA isize=36
gpeg_engine.vhd:407:1:@2715ns:(report note): SET
gpeg_engine.vhd:539:13:@2715ns:(report note): EXEC done: opcode=0x002003CA bc_off=52 inp_off=0 v_failed=true sp=6
gpeg_engine.vhd:238:11:@2795ns:(report note): LOAD_OP: bc_offset=380 opcode=0x000003A0 isize=4
gpeg_engine.vhd:435:1:@2825ns:(report note): RET
gpeg_engine.vhd:539:13:@2825ns:(report note): EXEC done: opcode=0x000003A0 bc_off=380 inp_off=0 v_failed=false sp=3
gpeg_engine.vhd:238:11:@2855ns:(report note): LOAD_OP: bc_offset=780 opcode=0x00040393 isize=8
gpeg_engine.vhd:445:1:@2905ns:(report note): CATCH
gpeg_engine.vhd:445:1:@2925ns:(report note): CATCH
gpeg_engine.vhd:539:13:@2925ns:(report note): EXEC done: opcode=0x00040393 bc_off=780 inp_off=0 v_failed=false sp=4
gpeg_engine.vhd:238:11:@2955ns:(report note): LOAD_OP: bc_offset=788 opcode=0x00040393 isize=8
gpeg_engine.vhd:445:1:@3005ns:(report note): CATCH
gpeg_engine.vhd:445:1:@3025ns:(report note): CATCH
gpeg_engine.vhd:539:13:@3025ns:(report note): EXEC done: opcode=0x00040393 bc_off=788 inp_off=0 v_failed=false sp=5
gpeg_engine.vhd:238:11:@3055ns:(report note): LOAD_OP: bc_offset=796 opcode=0x00040393 isize=8
gpeg_engine.vhd:445:1:@3105ns:(report note): CATCH
gpeg_engine.vhd:445:1:@3125ns:(report note): CATCH
gpeg_engine.vhd:539:13:@3125ns:(report note): EXEC done: opcode=0x00040393 bc_off=796 inp_off=0 v_failed=false sp=6
gpeg_engine.vhd:238:11:@3155ns:(report note): LOAD_OP: bc_offset=804 opcode=0x00040393 isize=8
gpeg_engine.vhd:445:1:@3205ns:(report note): CATCH
gpeg_engine.vhd:445:1:@3225ns:(report note): CATCH
gpeg_engine.vhd:539:13:@3225ns:(report note): EXEC done: opcode=0x00040393 bc_off=804 inp_off=0 v_failed=false sp=7
gpeg_engine.vhd:238:11:@3255ns:(report note): LOAD_OP: bc_offset=812 opcode=0x00040393 isize=8
gpeg_engine.vhd:445:1:@3305ns:(report note): CATCH
gpeg_engine.vhd:445:1:@3325ns:(report note): CATCH
gpeg_engine.vhd:539:13:@3325ns:(report note): EXEC done: opcode=0x00040393 bc_off=812 inp_off=0 v_failed=false sp=8
gpeg_engine.vhd:238:11:@3355ns:(report note): LOAD_OP: bc_offset=820 opcode=0x00040393 isize=8
gpeg_engine.vhd:445:1:@3405ns:(report note): CATCH
gpeg_engine.vhd:445:1:@3425ns:(report note): CATCH
gpeg_engine.vhd:539:13:@3425ns:(report note): EXEC done: opcode=0x00040393 bc_off=820 inp_off=0 v_failed=false sp=9
gpeg_engine.vhd:238:11:@3455ns:(report note): LOAD_OP: bc_offset=828 opcode=0x00040393 isize=8
gpeg_engine.vhd:445:1:@3505ns:(report note): CATCH
gpeg_engine.vhd:445:1:@3525ns:(report note): CATCH
gpeg_engine.vhd:539:13:@3525ns:(report note): EXEC done: opcode=0x00040393 bc_off=828 inp_off=0 v_failed=false sp=10
gpeg_engine.vhd:238:11:@3555ns:(report note): LOAD_OP: bc_offset=836 opcode=0x00040382 isize=8
gpeg_engine.vhd:420:1:@3605ns:(report note): CALL
gpeg_engine.vhd:420:1:@3625ns:(report note): CALL
gpeg_engine.vhd:539:13:@3625ns:(report note): EXEC done: opcode=0x00040382 bc_off=836 inp_off=0 v_failed=false sp=11
gpeg_engine.vhd:238:11:@3655ns:(report note): LOAD_OP: bc_offset=960 opcode=0x00040382 isize=8
gpeg_engine.vhd:420:1:@3705ns:(report note): CALL
gpeg_engine.vhd:420:1:@3725ns:(report note): CALL
gpeg_engine.vhd:539:13:@3725ns:(report note): EXEC done: opcode=0x00040382 bc_off=960 inp_off=0 v_failed=false sp=12
gpeg_engine.vhd:238:11:@3755ns:(report note): LOAD_OP: bc_offset=308 opcode=0x00040393 isize=8
gpeg_engine.vhd:445:1:@3805ns:(report note): CATCH
gpeg_engine.vhd:445:1:@3825ns:(report note): CATCH
gpeg_engine.vhd:539:13:@3825ns:(report note): EXEC done: opcode=0x00040393 bc_off=308 inp_off=0 v_failed=false sp=13
gpeg_engine.vhd:238:11:@3855ns:(report note): LOAD_OP: bc_offset=316 opcode=0x00040393 isize=8
gpeg_engine.vhd:445:1:@3905ns:(report note): CATCH
gpeg_engine.vhd:445:1:@3925ns:(report note): CATCH
gpeg_engine.vhd:539:13:@3925ns:(report note): EXEC done: opcode=0x00040393 bc_off=316 inp_off=0 v_failed=false sp=14
gpeg_engine.vhd:238:11:@3955ns:(report note): LOAD_OP: bc_offset=324 opcode=0x00040393 isize=8
gpeg_engine.vhd:445:1:@4005ns:(report note): CATCH
gpeg_engine.vhd:445:1:@4025ns:(report note): CATCH
gpeg_engine.vhd:539:13:@4025ns:(report note): EXEC done: opcode=0x00040393 bc_off=324 inp_off=0 v_failed=false sp=15
gpeg_engine.vhd:238:11:@4055ns:(report note): LOAD_OP: bc_offset=332 opcode=0x00040382 isize=8
gpeg_engine.vhd:420:1:@4105ns:(report note): CALL
gpeg_engine.vhd:420:1:@4125ns:(report note): CALL
gpeg_engine.vhd:539:13:@4125ns:(report note): EXEC done: opcode=0x00040382 bc_off=332 inp_off=0 v_failed=false sp=16
gpeg_engine.vhd:238:11:@4155ns:(report note): LOAD_OP: bc_offset=144 opcode=0x000403D7 isize=8
gpeg_engine.vhd:375:1:@4235ns:(report note): CHAR
gpeg_engine.vhd:539:13:@4235ns:(report note): EXEC done: opcode=0x000403D7 bc_off=144 inp_off=0 v_failed=true sp=16
gpeg_engine.vhd:238:11:@4315ns:(report note): LOAD_OP: bc_offset=348 opcode=0x00040382 isize=8
gpeg_engine.vhd:420:1:@4365ns:(report note): CALL
gpeg_engine.vhd:420:1:@4385ns:(report note): CALL
gpeg_engine.vhd:539:13:@4385ns:(report note): EXEC done: opcode=0x00040382 bc_off=348 inp_off=0 v_failed=false sp=15
gpeg_engine.vhd:238:11:@4415ns:(report note): LOAD_OP: bc_offset=228 opcode=0x000403D7 isize=8
gpeg_engine.vhd:375:1:@4495ns:(report note): CHAR
gpeg_engine.vhd:539:13:@4495ns:(report note): EXEC done: opcode=0x000403D7 bc_off=228 inp_off=0 v_failed=true sp=15
gpeg_engine.vhd:238:11:@4575ns:(report note): LOAD_OP: bc_offset=364 opcode=0x00040382 isize=8
gpeg_engine.vhd:420:1:@4625ns:(report note): CALL
gpeg_engine.vhd:420:1:@4645ns:(report note): CALL
gpeg_engine.vhd:539:13:@4645ns:(report note): EXEC done: opcode=0x00040382 bc_off=364 inp_off=0 v_failed=false sp=14
gpeg_engine.vhd:238:11:@4675ns:(report note): LOAD_OP: bc_offset=52 opcode=0x002003CA isize=36
gpeg_engine.vhd:407:1:@4755ns:(report note): SET
gpeg_engine.vhd:539:13:@4755ns:(report note): EXEC done: opcode=0x002003CA bc_off=52 inp_off=0 v_failed=true sp=14
gpeg_engine.vhd:238:11:@4835ns:(report note): LOAD_OP: bc_offset=380 opcode=0x000003A0 isize=4
gpeg_engine.vhd:435:1:@4865ns:(report note): RET
gpeg_engine.vhd:539:13:@4865ns:(report note): EXEC done: opcode=0x000003A0 bc_off=380 inp_off=0 v_failed=false sp=11
gpeg_engine.vhd:238:11:@4895ns:(report note): LOAD_OP: bc_offset=968 opcode=0x000403D7 isize=8
gpeg_engine.vhd:375:1:@4975ns:(report note): CHAR
gpeg_engine.vhd:539:13:@4975ns:(report note): EXEC done: opcode=0x000403D7 bc_off=968 inp_off=0 v_failed=true sp=11
gpeg_engine.vhd:238:11:@5055ns:(report note): LOAD_OP: bc_offset=852 opcode=0x00040382 isize=8
gpeg_engine.vhd:420:1:@5105ns:(report note): CALL
gpeg_engine.vhd:420:1:@5125ns:(report note): CALL
gpeg_engine.vhd:539:13:@5125ns:(report note): EXEC done: opcode=0x00040382 bc_off=852 inp_off=0 v_failed=false sp=10
gpeg_engine.vhd:238:11:@5155ns:(report note): LOAD_OP: bc_offset=1096 opcode=0x00040382 isize=8
gpeg_engine.vhd:420:1:@5205ns:(report note): CALL
gpeg_engine.vhd:420:1:@5225ns:(report note): CALL
gpeg_engine.vhd:539:13:@5225ns:(report note): EXEC done: opcode=0x00040382 bc_off=1096 inp_off=0 v_failed=false sp=11
gpeg_engine.vhd:238:11:@5255ns:(report note): LOAD_OP: bc_offset=308 opcode=0x00040393 isize=8
gpeg_engine.vhd:445:1:@5305ns:(report note): CATCH
gpeg_engine.vhd:445:1:@5325ns:(report note): CATCH
gpeg_engine.vhd:539:13:@5325ns:(report note): EXEC done: opcode=0x00040393 bc_off=308 inp_off=0 v_failed=false sp=12
gpeg_engine.vhd:238:11:@5355ns:(report note): LOAD_OP: bc_offset=316 opcode=0x00040393 isize=8
gpeg_engine.vhd:445:1:@5405ns:(report note): CATCH
gpeg_engine.vhd:445:1:@5425ns:(report note): CATCH
gpeg_engine.vhd:539:13:@5425ns:(report note): EXEC done: opcode=0x00040393 bc_off=316 inp_off=0 v_failed=false sp=13
gpeg_engine.vhd:238:11:@5455ns:(report note): LOAD_OP: bc_offset=324 opcode=0x00040393 isize=8
gpeg_engine.vhd:445:1:@5505ns:(report note): CATCH
gpeg_engine.vhd:445:1:@5525ns:(report note): CATCH
gpeg_engine.vhd:539:13:@5525ns:(report note): EXEC done: opcode=0x00040393 bc_off=324 inp_off=0 v_failed=false sp=14
gpeg_engine.vhd:238:11:@5555ns:(report note): LOAD_OP: bc_offset=332 opcode=0x00040382 isize=8
gpeg_engine.vhd:420:1:@5605ns:(report note): CALL
gpeg_engine.vhd:420:1:@5625ns:(report note): CALL
gpeg_engine.vhd:539:13:@5625ns:(report note): EXEC done: opcode=0x00040382 bc_off=332 inp_off=0 v_failed=false sp=15
gpeg_engine.vhd:238:11:@5655ns:(report note): LOAD_OP: bc_offset=144 opcode=0x000403D7 isize=8
gpeg_engine.vhd:375:1:@5735ns:(report note): CHAR
gpeg_engine.vhd:539:13:@5735ns:(report note): EXEC done: opcode=0x000403D7 bc_off=144 inp_off=0 v_failed=true sp=15
gpeg_engine.vhd:238:11:@5815ns:(report note): LOAD_OP: bc_offset=348 opcode=0x00040382 isize=8
gpeg_engine.vhd:420:1:@5865ns:(report note): CALL
gpeg_engine.vhd:420:1:@5885ns:(report note): CALL
gpeg_engine.vhd:539:13:@5885ns:(report note): EXEC done: opcode=0x00040382 bc_off=348 inp_off=0 v_failed=false sp=14
gpeg_engine.vhd:238:11:@5915ns:(report note): LOAD_OP: bc_offset=228 opcode=0x000403D7 isize=8
gpeg_engine.vhd:375:1:@5995ns:(report note): CHAR
gpeg_engine.vhd:539:13:@5995ns:(report note): EXEC done: opcode=0x000403D7 bc_off=228 inp_off=0 v_failed=true sp=14
gpeg_engine.vhd:238:11:@6075ns:(report note): LOAD_OP: bc_offset=364 opcode=0x00040382 isize=8
gpeg_engine.vhd:420:1:@6125ns:(report note): CALL
gpeg_engine.vhd:420:1:@6145ns:(report note): CALL
gpeg_engine.vhd:539:13:@6145ns:(report note): EXEC done: opcode=0x00040382 bc_off=364 inp_off=0 v_failed=false sp=13
gpeg_engine.vhd:238:11:@6175ns:(report note): LOAD_OP: bc_offset=52 opcode=0x002003CA isize=36
gpeg_engine.vhd:407:1:@6255ns:(report note): SET
gpeg_engine.vhd:539:13:@6255ns:(report note): EXEC done: opcode=0x002003CA bc_off=52 inp_off=0 v_failed=true sp=13
gpeg_engine.vhd:238:11:@6335ns:(report note): LOAD_OP: bc_offset=380 opcode=0x000003A0 isize=4
gpeg_engine.vhd:435:1:@6365ns:(report note): RET
gpeg_engine.vhd:539:13:@6365ns:(report note): EXEC done: opcode=0x000003A0 bc_off=380 inp_off=0 v_failed=false sp=10
gpeg_engine.vhd:238:11:@6395ns:(report note): LOAD_OP: bc_offset=1104 opcode=0x000403D7 isize=8
gpeg_engine.vhd:375:1:@6475ns:(report note): CHAR
gpeg_engine.vhd:539:13:@6475ns:(report note): EXEC done: opcode=0x000403D7 bc_off=1104 inp_off=0 v_failed=true sp=10
gpeg_engine.vhd:238:11:@6555ns:(report note): LOAD_OP: bc_offset=868 opcode=0x00040382 isize=8
gpeg_engine.vhd:420:1:@6605ns:(report note): CALL
gpeg_engine.vhd:420:1:@6625ns:(report note): CALL
gpeg_engine.vhd:539:13:@6625ns:(report note): EXEC done: opcode=0x00040382 bc_off=868 inp_off=0 v_failed=false sp=9
gpeg_engine.vhd:238:11:@6655ns:(report note): LOAD_OP: bc_offset=1484 opcode=0x00040382 isize=8
gpeg_engine.vhd:420:1:@6705ns:(report note): CALL
gpeg_engine.vhd:420:1:@6725ns:(report note): CALL
gpeg_engine.vhd:539:13:@6725ns:(report note): EXEC done: opcode=0x00040382 bc_off=1484 inp_off=0 v_failed=false sp=10
gpeg_engine.vhd:238:11:@6755ns:(report note): LOAD_OP: bc_offset=308 opcode=0x00040393 isize=8
gpeg_engine.vhd:445:1:@6805ns:(report note): CATCH
gpeg_engine.vhd:445:1:@6825ns:(report note): CATCH
gpeg_engine.vhd:539:13:@6825ns:(report note): EXEC done: opcode=0x00040393 bc_off=308 inp_off=0 v_failed=false sp=11
gpeg_engine.vhd:238:11:@6855ns:(report note): LOAD_OP: bc_offset=316 opcode=0x00040393 isize=8
gpeg_engine.vhd:445:1:@6905ns:(report note): CATCH
gpeg_engine.vhd:445:1:@6925ns:(report note): CATCH
gpeg_engine.vhd:539:13:@6925ns:(report note): EXEC done: opcode=0x00040393 bc_off=316 inp_off=0 v_failed=false sp=12
gpeg_engine.vhd:238:11:@6955ns:(report note): LOAD_OP: bc_offset=324 opcode=0x00040393 isize=8
gpeg_engine.vhd:445:1:@7005ns:(report note): CATCH
gpeg_engine.vhd:445:1:@7025ns:(report note): CATCH
gpeg_engine.vhd:539:13:@7025ns:(report note): EXEC done: opcode=0x00040393 bc_off=324 inp_off=0 v_failed=false sp=13
gpeg_engine.vhd:238:11:@7055ns:(report note): LOAD_OP: bc_offset=332 opcode=0x00040382 isize=8
gpeg_engine.vhd:420:1:@7105ns:(report note): CALL
gpeg_engine.vhd:420:1:@7125ns:(report note): CALL
gpeg_engine.vhd:539:13:@7125ns:(report note): EXEC done: opcode=0x00040382 bc_off=332 inp_off=0 v_failed=false sp=14
gpeg_engine.vhd:238:11:@7155ns:(report note): LOAD_OP: bc_offset=144 opcode=0x000403D7 isize=8
gpeg_engine.vhd:375:1:@7235ns:(report note): CHAR
gpeg_engine.vhd:539:13:@7235ns:(report note): EXEC done: opcode=0x000403D7 bc_off=144 inp_off=0 v_failed=true sp=14
gpeg_engine.vhd:238:11:@7315ns:(report note): LOAD_OP: bc_offset=348 opcode=0x00040382 isize=8
gpeg_engine.vhd:420:1:@7365ns:(report note): CALL
gpeg_engine.vhd:420:1:@7385ns:(report note): CALL
gpeg_engine.vhd:539:13:@7385ns:(report note): EXEC done: opcode=0x00040382 bc_off=348 inp_off=0 v_failed=false sp=13
gpeg_engine.vhd:238:11:@7415ns:(report note): LOAD_OP: bc_offset=228 opcode=0x000403D7 isize=8
gpeg_engine.vhd:375:1:@7495ns:(report note): CHAR
gpeg_engine.vhd:539:13:@7495ns:(report note): EXEC done: opcode=0x000403D7 bc_off=228 inp_off=0 v_failed=true sp=13
gpeg_engine.vhd:238:11:@7575ns:(report note): LOAD_OP: bc_offset=364 opcode=0x00040382 isize=8
gpeg_engine.vhd:420:1:@7625ns:(report note): CALL
gpeg_engine.vhd:420:1:@7645ns:(report note): CALL
gpeg_engine.vhd:539:13:@7645ns:(report note): EXEC done: opcode=0x00040382 bc_off=364 inp_off=0 v_failed=false sp=12
gpeg_engine.vhd:238:11:@7675ns:(report note): LOAD_OP: bc_offset=52 opcode=0x002003CA isize=36
gpeg_engine.vhd:407:1:@7755ns:(report note): SET
gpeg_engine.vhd:539:13:@7755ns:(report note): EXEC done: opcode=0x002003CA bc_off=52 inp_off=0 v_failed=true sp=12
gpeg_engine.vhd:238:11:@7835ns:(report note): LOAD_OP: bc_offset=380 opcode=0x000003A0 isize=4
gpeg_engine.vhd:435:1:@7865ns:(report note): RET
gpeg_engine.vhd:539:13:@7865ns:(report note): EXEC done: opcode=0x000003A0 bc_off=380 inp_off=0 v_failed=false sp=9
gpeg_engine.vhd:238:11:@7895ns:(report note): LOAD_OP: bc_offset=1492 opcode=0x0004039C isize=8
gpeg_engine.vhd:518:1:@7945ns:(report note): OPENCAPTURE
gpeg_engine.vhd:539:13:@7945ns:(report note): EXEC done: opcode=0x0004039C bc_off=1492 inp_off=0 v_failed=false sp=9
gpeg_engine.vhd:238:11:@7975ns:(report note): LOAD_OP: bc_offset=1500 opcode=0x00040393 isize=8
gpeg_engine.vhd:445:1:@8025ns:(report note): CATCH
gpeg_engine.vhd:445:1:@8045ns:(report note): CATCH
gpeg_engine.vhd:539:13:@8045ns:(report note): EXEC done: opcode=0x00040393 bc_off=1500 inp_off=0 v_failed=false sp=10
gpeg_engine.vhd:238:11:@8075ns:(report note): LOAD_OP: bc_offset=1508 opcode=0x000403D7 isize=8
gpeg_engine.vhd:375:1:@8155ns:(report note): CHAR
gpeg_engine.vhd:539:13:@8155ns:(report note): EXEC done: opcode=0x000403D7 bc_off=1508 inp_off=0 v_failed=true sp=10
gpeg_engine.vhd:238:11:@8215ns:(report note): LOAD_OP: bc_offset=1524 opcode=0x00040393 isize=8
gpeg_engine.vhd:445:1:@8265ns:(report note): CATCH
gpeg_engine.vhd:445:1:@8285ns:(report note): CATCH
gpeg_engine.vhd:539:13:@8285ns:(report note): EXEC done: opcode=0x00040393 bc_off=1524 inp_off=0 v_failed=false sp=10
gpeg_engine.vhd:238:11:@8315ns:(report note): LOAD_OP: bc_offset=1532 opcode=0x002003CA isize=36
gpeg_engine.vhd:407:1:@8395ns:(report note): SET
gpeg_engine.vhd:539:13:@8395ns:(report note): EXEC done: opcode=0x002003CA bc_off=1532 inp_off=0 v_failed=true sp=10
gpeg_engine.vhd:238:11:@8455ns:(report note): LOAD_OP: bc_offset=1576 opcode=0x000403D7 isize=8
gpeg_engine.vhd:375:1:@8535ns:(report note): CHAR
gpeg_engine.vhd:539:13:@8535ns:(report note): EXEC done: opcode=0x000403D7 bc_off=1576 inp_off=0 v_failed=true sp=9
gpeg_engine.vhd:238:11:@8615ns:(report note): LOAD_OP: bc_offset=884 opcode=0x00040382 isize=8
gpeg_engine.vhd:420:1:@8665ns:(report note): CALL
gpeg_engine.vhd:420:1:@8685ns:(report note): CALL
gpeg_engine.vhd:539:13:@8685ns:(report note): EXEC done: opcode=0x00040382 bc_off=884 inp_off=0 v_failed=false sp=8
gpeg_engine.vhd:238:11:@8715ns:(report note): LOAD_OP: bc_offset=1344 opcode=0x00040382 isize=8
gpeg_engine.vhd:420:1:@8765ns:(report note): CALL
gpeg_engine.vhd:420:1:@8785ns:(report note): CALL
gpeg_engine.vhd:539:13:@8785ns:(report note): EXEC done: opcode=0x00040382 bc_off=1344 inp_off=0 v_failed=false sp=9
gpeg_engine.vhd:238:11:@8815ns:(report note): LOAD_OP: bc_offset=308 opcode=0x00040393 isize=8
gpeg_engine.vhd:445:1:@8865ns:(report note): CATCH
gpeg_engine.vhd:445:1:@8885ns:(report note): CATCH
gpeg_engine.vhd:539:13:@8885ns:(report note): EXEC done: opcode=0x00040393 bc_off=308 inp_off=0 v_failed=false sp=10
gpeg_engine.vhd:238:11:@8915ns:(report note): LOAD_OP: bc_offset=316 opcode=0x00040393 isize=8
gpeg_engine.vhd:445:1:@8965ns:(report note): CATCH
gpeg_engine.vhd:445:1:@8985ns:(report note): CATCH
gpeg_engine.vhd:539:13:@8985ns:(report note): EXEC done: opcode=0x00040393 bc_off=316 inp_off=0 v_failed=false sp=11
gpeg_engine.vhd:238:11:@9015ns:(report note): LOAD_OP: bc_offset=324 opcode=0x00040393 isize=8
gpeg_engine.vhd:445:1:@9065ns:(report note): CATCH
gpeg_engine.vhd:445:1:@9085ns:(report note): CATCH
gpeg_engine.vhd:539:13:@9085ns:(report note): EXEC done: opcode=0x00040393 bc_off=324 inp_off=0 v_failed=false sp=12
gpeg_engine.vhd:238:11:@9115ns:(report note): LOAD_OP: bc_offset=332 opcode=0x00040382 isize=8
gpeg_engine.vhd:420:1:@9165ns:(report note): CALL
gpeg_engine.vhd:420:1:@9185ns:(report note): CALL
gpeg_engine.vhd:539:13:@9185ns:(report note): EXEC done: opcode=0x00040382 bc_off=332 inp_off=0 v_failed=false sp=13
gpeg_engine.vhd:238:11:@9215ns:(report note): LOAD_OP: bc_offset=144 opcode=0x000403D7 isize=8
gpeg_engine.vhd:375:1:@9295ns:(report note): CHAR
gpeg_engine.vhd:539:13:@9295ns:(report note): EXEC done: opcode=0x000403D7 bc_off=144 inp_off=0 v_failed=true sp=13
gpeg_engine.vhd:238:11:@9375ns:(report note): LOAD_OP: bc_offset=348 opcode=0x00040382 isize=8
gpeg_engine.vhd:420:1:@9425ns:(report note): CALL
gpeg_engine.vhd:420:1:@9445ns:(report note): CALL
gpeg_engine.vhd:539:13:@9445ns:(report note): EXEC done: opcode=0x00040382 bc_off=348 inp_off=0 v_failed=false sp=12
gpeg_engine.vhd:238:11:@9475ns:(report note): LOAD_OP: bc_offset=228 opcode=0x000403D7 isize=8
gpeg_engine.vhd:375:1:@9555ns:(report note): CHAR
gpeg_engine.vhd:539:13:@9555ns:(report note): EXEC done: opcode=0x000403D7 bc_off=228 inp_off=0 v_failed=true sp=12
gpeg_engine.vhd:238:11:@9635ns:(report note): LOAD_OP: bc_offset=364 opcode=0x00040382 isize=8
gpeg_engine.vhd:420:1:@9685ns:(report note): CALL
