src/vhdl/vhdl.test.log
gpeg_engine.vhd:238:11:@75ns:(report note): LOAD_OP: bc_offset=0 opcode=0x00040382 isize=8
gpeg_engine.vhd:420:1:@125ns:(report note): CALL
gpeg_engine.vhd:420:1:@145ns:(report note): CALL
gpeg_engine.vhd:539:13:@145ns:(report note): EXEC done: opcode=0x00040382 bc_off=0 inp_off=0 v_failed=false sp=1
gpeg_engine.vhd:238:11:@175ns:(report note): LOAD_OP: bc_offset=16 opcode=0x00040382 isize=8
gpeg_engine.vhd:420:1:@225ns:(report note): CALL
gpeg_engine.vhd:420:1:@245ns:(report note): CALL
gpeg_engine.vhd:539:13:@245ns:(report note): EXEC done: opcode=0x00040382 bc_off=16 inp_off=0 v_failed=false sp=2
gpeg_engine.vhd:238:11:@275ns:(report note): LOAD_OP: bc_offset=128 opcode=0x00040393 isize=8
gpeg_engine.vhd:445:1:@325ns:(report note): CATCH
gpeg_engine.vhd:445:1:@345ns:(report note): CATCH
gpeg_engine.vhd:539:13:@345ns:(report note): EXEC done: opcode=0x00040393 bc_off=128 inp_off=0 v_failed=false sp=3
gpeg_engine.vhd:238:11:@375ns:(report note): LOAD_OP: bc_offset=136 opcode=0x000403D7 isize=8
gpeg_engine.vhd:375:1:@455ns:(report note): CHAR
gpeg_engine.vhd:539:13:@455ns:(report note): EXEC done: opcode=0x000403D7 bc_off=136 inp_off=0 v_failed=false sp=3
gpeg_engine.vhd:238:11:@485ns:(report note): LOAD_OP: bc_offset=144 opcode=0x000403D7 isize=8
gpeg_engine.vhd:375:1:@565ns:(report note): CHAR
gpeg_engine.vhd:539:13:@565ns:(report note): EXEC done: opcode=0x000403D7 bc_off=144 inp_off=1 v_failed=false sp=3
gpeg_engine.vhd:238:11:@595ns:(report note): LOAD_OP: bc_offset=152 opcode=0x000403D7 isize=8
gpeg_engine.vhd:375:1:@675ns:(report note): CHAR
gpeg_engine.vhd:539:13:@675ns:(report note): EXEC done: opcode=0x000403D7 bc_off=152 inp_off=2 v_failed=false sp=3
gpeg_engine.vhd:238:11:@705ns:(report note): LOAD_OP: bc_offset=160 opcode=0x000403D7 isize=8
gpeg_engine.vhd:375:1:@785ns:(report note): CHAR
gpeg_engine.vhd:539:13:@785ns:(report note): EXEC done: opcode=0x000403D7 bc_off=160 inp_off=3 v_failed=false sp=3
gpeg_engine.vhd:238:11:@815ns:(report note): LOAD_OP: bc_offset=168 opcode=0x000403D7 isize=8
gpeg_engine.vhd:375:1:@895ns:(report note): CHAR
gpeg_engine.vhd:539:13:@895ns:(report note): EXEC done: opcode=0x000403D7 bc_off=168 inp_off=4 v_failed=false sp=3
gpeg_engine.vhd:238:11:@925ns:(report note): LOAD_OP: bc_offset=176 opcode=0x000403C0 isize=8
gpeg_engine.vhd:465:1:@985ns:(report note): BACKCOMMIT
gpeg_engine.vhd:539:13:@985ns:(report note): EXEC done: opcode=0x000403C0 bc_off=176 inp_off=5 v_failed=false sp=2
gpeg_engine.vhd:238:11:@1015ns:(report note): LOAD_OP: bc_offset=188 opcode=0x000403D7 isize=8
gpeg_engine.vhd:375:1:@1095ns:(report note): CHAR
gpeg_engine.vhd:539:13:@1095ns:(report note): EXEC done: opcode=0x000403D7 bc_off=188 inp_off=0 v_failed=false sp=2
gpeg_engine.vhd:238:11:@1125ns:(report note): LOAD_OP: bc_offset=196 opcode=0x000403D7 isize=8
gpeg_engine.vhd:375:1:@1205ns:(report note): CHAR
gpeg_engine.vhd:539:13:@1205ns:(report note): EXEC done: opcode=0x000403D7 bc_off=196 inp_off=1 v_failed=false sp=2
gpeg_engine.vhd:238:11:@1235ns:(report note): LOAD_OP: bc_offset=204 opcode=0x000403D7 isize=8
gpeg_engine.vhd:375:1:@1315ns:(report note): CHAR
gpeg_engine.vhd:539:13:@1315ns:(report note): EXEC done: opcode=0x000403D7 bc_off=204 inp_off=2 v_failed=false sp=2
gpeg_engine.vhd:238:11:@1345ns:(report note): LOAD_OP: bc_offset=212 opcode=0x000403D7 isize=8
gpeg_engine.vhd:375:1:@1425ns:(report note): CHAR
gpeg_engine.vhd:539:13:@1425ns:(report note): EXEC done: opcode=0x000403D7 bc_off=212 inp_off=3 v_failed=false sp=2
gpeg_engine.vhd:238:11:@1455ns:(report note): LOAD_OP: bc_offset=220 opcode=0x000403D7 isize=8
gpeg_engine.vhd:375:1:@1535ns:(report note): CHAR
gpeg_engine.vhd:539:13:@1535ns:(report note): EXEC done: opcode=0x000403D7 bc_off=220 inp_off=4 v_failed=false sp=2
gpeg_engine.vhd:238:11:@1565ns:(report note): LOAD_OP: bc_offset=228 opcode=0x000003A0 isize=4
gpeg_engine.vhd:435:1:@1595ns:(report note): RET
gpeg_engine.vhd:539:13:@1595ns:(report note): EXEC done: opcode=0x000003A0 bc_off=228 inp_off=5 v_failed=false sp=1
gpeg_engine.vhd:238:11:@1625ns:(report note): LOAD_OP: bc_offset=24 opcode=0x00040382 isize=8
gpeg_engine.vhd:420:1:@1675ns:(report note): CALL
gpeg_engine.vhd:420:1:@1695ns:(report note): CALL
gpeg_engine.vhd:539:13:@1695ns:(report note): EXEC done: opcode=0x00040382 bc_off=24 inp_off=5 v_failed=false sp=2
gpeg_engine.vhd:238:11:@1725ns:(report note): LOAD_OP: bc_offset=116 opcode=0x000403D7 isize=8
gpeg_engine.vhd:375:1:@1805ns:(report note): CHAR
gpeg_engine.vhd:539:13:@1805ns:(report note): EXEC done: opcode=0x000403D7 bc_off=116 inp_off=5 v_failed=false sp=2
gpeg_engine.vhd:238:11:@1835ns:(report note): LOAD_OP: bc_offset=124 opcode=0x000003A0 isize=4
gpeg_engine.vhd:435:1:@1865ns:(report note): RET
gpeg_engine.vhd:539:13:@1865ns:(report note): EXEC done: opcode=0x000003A0 bc_off=124 inp_off=6 v_failed=false sp=1
gpeg_engine.vhd:238:11:@1895ns:(report note): LOAD_OP: bc_offset=32 opcode=0x00040382 isize=8
gpeg_engine.vhd:420:1:@1945ns:(report note): CALL
gpeg_engine.vhd:420:1:@1965ns:(report note): CALL
gpeg_engine.vhd:539:13:@1965ns:(report note): EXEC done: opcode=0x00040382 bc_off=32 inp_off=6 v_failed=false sp=2
gpeg_engine.vhd:238:11:@1995ns:(report note): LOAD_OP: bc_offset=232 opcode=0x00040393 isize=8
gpeg_engine.vhd:445:1:@2045ns:(report note): CATCH
gpeg_engine.vhd:445:1:@2065ns:(report note): CATCH
gpeg_engine.vhd:539:13:@2065ns:(report note): EXEC done: opcode=0x00040393 bc_off=232 inp_off=6 v_failed=false sp=3
gpeg_engine.vhd:238:11:@2095ns:(report note): LOAD_OP: bc_offset=240 opcode=0x00040393 isize=8
gpeg_engine.vhd:445:1:@2145ns:(report note): CATCH
gpeg_engine.vhd:445:1:@2165ns:(report note): CATCH
gpeg_engine.vhd:539:13:@2165ns:(report note): EXEC done: opcode=0x00040393 bc_off=240 inp_off=6 v_failed=false sp=4
gpeg_engine.vhd:238:11:@2195ns:(report note): LOAD_OP: bc_offset=248 opcode=0x000403D7 isize=8
gpeg_engine.vhd:375:1:@2275ns:(report note): CHAR
gpeg_engine.vhd:539:13:@2275ns:(report note): EXEC done: opcode=0x000403D7 bc_off=248 inp_off=6 v_failed=false sp=4
gpeg_engine.vhd:238:11:@2305ns:(report note): LOAD_OP: bc_offset=256 opcode=0x000403D7 isize=8
gpeg_engine.vhd:375:1:@2385ns:(report note): CHAR
gpeg_engine.vhd:539:13:@2385ns:(report note): EXEC done: opcode=0x000403D7 bc_off=256 inp_off=7 v_failed=true sp=4
gpeg_engine.vhd:238:11:@2445ns:(report note): LOAD_OP: bc_offset=296 opcode=0x0000034B isize=4
gpeg_engine.vhd:504:1:@2465ns:(report note): FAIL
gpeg_engine.vhd:539:13:@2465ns:(report note): EXEC done: opcode=0x0000034B bc_off=296 inp_off=6 v_failed=true sp=3
gpeg_engine.vhd:238:11:@2525ns:(report note): LOAD_OP: bc_offset=308 opcode=0x000403D7 isize=8
gpeg_engine.vhd:375:1:@2605ns:(report note): CHAR
gpeg_engine.vhd:539:13:@2605ns:(report note): EXEC done: opcode=0x000403D7 bc_off=308 inp_off=6 v_failed=false sp=2
gpeg_engine.vhd:238:11:@2635ns:(report note): LOAD_OP: bc_offset=316 opcode=0x000403D7 isize=8
gpeg_engine.vhd:375:1:@2715ns:(report note): CHAR
gpeg_engine.vhd:539:13:@2715ns:(report note): EXEC done: opcode=0x000403D7 bc_off=316 inp_off=7 v_failed=false sp=2
gpeg_engine.vhd:238:11:@2745ns:(report note): LOAD_OP: bc_offset=324 opcode=0x000403D7 isize=8
gpeg_engine.vhd:375:1:@2825ns:(report note): CHAR
gpeg_engine.vhd:539:13:@2825ns:(report note): EXEC done: opcode=0x000403D7 bc_off=324 inp_off=8 v_failed=false sp=2
gpeg_engine.vhd:238:11:@2855ns:(report note): LOAD_OP: bc_offset=332 opcode=0x000403D7 isize=8
gpeg_engine.vhd:375:1:@2935ns:(report note): CHAR
gpeg_engine.vhd:539:13:@2935ns:(report note): EXEC done: opcode=0x000403D7 bc_off=332 inp_off=9 v_failed=false sp=2
gpeg_engine.vhd:238:11:@2965ns:(report note): LOAD_OP: bc_offset=340 opcode=0x000403D7 isize=8
gpeg_engine.vhd:375:1:@3045ns:(report note): CHAR
gpeg_engine.vhd:539:13:@3045ns:(report note): EXEC done: opcode=0x000403D7 bc_off=340 inp_off=10 v_failed=false sp=2
gpeg_engine.vhd:238:11:@3075ns:(report note): LOAD_OP: bc_offset=348 opcode=0x000403D7 isize=8
gpeg_engine.vhd:375:1:@3155ns:(report note): CHAR
gpeg_engine.vhd:539:13:@3155ns:(report note): EXEC done: opcode=0x000403D7 bc_off=348 inp_off=11 v_failed=false sp=2
gpeg_engine.vhd:238:11:@3185ns:(report note): LOAD_OP: bc_offset=356 opcode=0x000403D7 isize=8
gpeg_engine.vhd:375:1:@3265ns:(report note): CHAR
gpeg_engine.vhd:539:13:@3265ns:(report note): EXEC done: opcode=0x000403D7 bc_off=356 inp_off=12 v_failed=false sp=2
gpeg_engine.vhd:238:11:@3295ns:(report note): LOAD_OP: bc_offset=364 opcode=0x000003A0 isize=4
gpeg_engine.vhd:435:1:@3325ns:(report note): RET
gpeg_engine.vhd:539:13:@3325ns:(report note): EXEC done: opcode=0x000003A0 bc_off=364 inp_off=13 v_failed=false sp=1
gpeg_engine.vhd:238:11:@3355ns:(report note): LOAD_OP: bc_offset=40 opcode=0x00040382 isize=8
gpeg_engine.vhd:420:1:@3405ns:(report note): CALL
gpeg_engine.vhd:420:1:@3425ns:(report note): CALL
gpeg_engine.vhd:539:13:@3425ns:(report note): EXEC done: opcode=0x00040382 bc_off=40 inp_off=13 v_failed=false sp=2
gpeg_engine.vhd:238:11:@3455ns:(report note): LOAD_OP: bc_offset=116 opcode=0x000403D7 isize=8
gpeg_engine.vhd:375:1:@3535ns:(report note): CHAR
gpeg_engine.vhd:539:13:@3535ns:(report note): EXEC done: opcode=0x000403D7 bc_off=116 inp_off=13 v_failed=false sp=2
gpeg_engine.vhd:238:11:@3565ns:(report note): LOAD_OP: bc_offset=124 opcode=0x000003A0 isize=4
gpeg_engine.vhd:435:1:@3595ns:(report note): RET
gpeg_engine.vhd:539:13:@3595ns:(report note): EXEC done: opcode=0x000003A0 bc_off=124 inp_off=14 v_failed=false sp=1
gpeg_engine.vhd:238:11:@3625ns:(report note): LOAD_OP: bc_offset=48 opcode=0x00040382 isize=8
gpeg_engine.vhd:420:1:@3675ns:(report note): CALL
gpeg_engine.vhd:420:1:@3695ns:(report note): CALL
gpeg_engine.vhd:539:13:@3695ns:(report note): EXEC done: opcode=0x00040382 bc_off=48 inp_off=14 v_failed=false sp=2
gpeg_engine.vhd:238:11:@3725ns:(report note): LOAD_OP: bc_offset=368 opcode=0x000403D7 isize=8
gpeg_engine.vhd:375:1:@3805ns:(report note): CHAR
gpeg_engine.vhd:539:13:@3805ns:(report note): EXEC done: opcode=0x000403D7 bc_off=368 inp_off=14 v_failed=false sp=2
gpeg_engine.vhd:238:11:@3835ns:(report note): LOAD_OP: bc_offset=376 opcode=0x00040393 isize=8
gpeg_engine.vhd:445:1:@3885ns:(report note): CATCH
gpeg_engine.vhd:445:1:@3905ns:(report note): CATCH
gpeg_engine.vhd:539:13:@3905ns:(report note): EXEC done: opcode=0x00040393 bc_off=376 inp_off=15 v_failed=false sp=3
gpeg_engine.vhd:238:11:@3935ns:(report note): LOAD_OP: bc_offset=384 opcode=0x00040393 isize=8
gpeg_engine.vhd:445:1:@3985ns:(report note): CATCH
gpeg_engine.vhd:445:1:@4005ns:(report note): CATCH
gpeg_engine.vhd:539:13:@4005ns:(report note): EXEC done: opcode=0x00040393 bc_off=384 inp_off=15 v_failed=false sp=4
gpeg_engine.vhd:238:11:@4035ns:(report note): LOAD_OP: bc_offset=392 opcode=0x000403D7 isize=8
gpeg_engine.vhd:375:1:@4115ns:(report note): CHAR
gpeg_engine.vhd:539:13:@4115ns:(report note): EXEC done: opcode=0x000403D7 bc_off=392 inp_off=15 v_failed=true sp=4
gpeg_engine.vhd:238:11:@4175ns:(report note): LOAD_OP: bc_offset=404 opcode=0x000003E4 isize=4
gpeg_engine.vhd:366:1:@4195ns:(report note): ANY
gpeg_engine.vhd:539:13:@4195ns:(report note): EXEC done: opcode=0x000003E4 bc_off=404 inp_off=15 v_failed=false sp=3
gpeg_engine.vhd:238:11:@4225ns:(report note): LOAD_OP: bc_offset=408 opcode=0x000403B4 isize=8
gpeg_engine.vhd:475:1:@4285ns:(report note): PARTIALCOMMIT
gpeg_engine.vhd:475:1:@4305ns:(report note): PARTIALCOMMIT
gpeg_engine.vhd:539:13:@4305ns:(report note): EXEC done: opcode=0x000403B4 bc_off=408 inp_off=16 v_failed=false sp=3
gpeg_engine.vhd:238:11:@4335ns:(report note): LOAD_OP: bc_offset=384 opcode=0x00040393 isize=8
gpeg_engine.vhd:445:1:@4385ns:(report note): CATCH
gpeg_engine.vhd:445:1:@4405ns:(report note): CATCH
gpeg_engine.vhd:539:13:@4405ns:(report note): EXEC done: opcode=0x00040393 bc_off=384 inp_off=16 v_failed=false sp=4
gpeg_engine.vhd:238:11:@4435ns:(report note): LOAD_OP: bc_offset=392 opcode=0x000403D7 isize=8
gpeg_engine.vhd:375:1:@4515ns:(report note): CHAR
gpeg_engine.vhd:539:13:@4515ns:(report note): EXEC done: opcode=0x000403D7 bc_off=392 inp_off=16 v_failed=true sp=4
gpeg_engine.vhd:238:11:@4575ns:(report note): LOAD_OP: bc_offset=404 opcode=0x000003E4 isize=4
gpeg_engine.vhd:366:1:@4595ns:(report note): ANY
gpeg_engine.vhd:539:13:@4595ns:(report note): EXEC done: opcode=0x000003E4 bc_off=404 inp_off=16 v_failed=false sp=3
gpeg_engine.vhd:238:11:@4625ns:(report note): LOAD_OP: bc_offset=408 opcode=0x000403B4 isize=8
gpeg_engine.vhd:475:1:@4685ns:(report note): PARTIALCOMMIT
gpeg_engine.vhd:475:1:@4705ns:(report note): PARTIALCOMMIT
gpeg_engine.vhd:539:13:@4705ns:(report note): EXEC done: opcode=0x000403B4 bc_off=408 inp_off=17 v_failed=false sp=3
gpeg_engine.vhd:238:11:@4735ns:(report note): LOAD_OP: bc_offset=384 opcode=0x00040393 isize=8
gpeg_engine.vhd:445:1:@4785ns:(report note): CATCH
gpeg_engine.vhd:445:1:@4805ns:(report note): CATCH
gpeg_engine.vhd:539:13:@4805ns:(report note): EXEC done: opcode=0x00040393 bc_off=384 inp_off=17 v_failed=false sp=4
gpeg_engine.vhd:238:11:@4835ns:(report note): LOAD_OP: bc_offset=392 opcode=0x000403D7 isize=8
gpeg_engine.vhd:375:1:@4915ns:(report note): CHAR
gpeg_engine.vhd:539:13:@4915ns:(report note): EXEC done: opcode=0x000403D7 bc_off=392 inp_off=17 v_failed=true sp=4
gpeg_engine.vhd:238:11:@4975ns:(report note): LOAD_OP: bc_offset=404 opcode=0x000003E4 isize=4
gpeg_engine.vhd:366:1:@4995ns:(report note): ANY
gpeg_engine.vhd:539:13:@4995ns:(report note): EXEC done: opcode=0x000003E4 bc_off=404 inp_off=17 v_failed=false sp=3
gpeg_engine.vhd:238:11:@5025ns:(report note): LOAD_OP: bc_offset=408 opcode=0x000403B4 isize=8
gpeg_engine.vhd:475:1:@5085ns:(report note): PARTIALCOMMIT
gpeg_engine.vhd:475:1:@5105ns:(report note): PARTIALCOMMIT
gpeg_engine.vhd:539:13:@5105ns:(report note): EXEC done: opcode=0x000403B4 bc_off=408 inp_off=18 v_failed=false sp=3
gpeg_engine.vhd:238:11:@5135ns:(report note): LOAD_OP: bc_offset=384 opcode=0x00040393 isize=8
gpeg_engine.vhd:445:1:@5185ns:(report note): CATCH
gpeg_engine.vhd:445:1:@5205ns:(report note): CATCH
gpeg_engine.vhd:539:13:@5205ns:(report note): EXEC done: opcode=0x00040393 bc_off=384 inp_off=18 v_failed=false sp=4
gpeg_engine.vhd:238:11:@5235ns:(report note): LOAD_OP: bc_offset=392 opcode=0x000403D7 isize=8
gpeg_engine.vhd:375:1:@5315ns:(report note): CHAR
gpeg_engine.vhd:539:13:@5315ns:(report note): EXEC done: opcode=0x000403D7 bc_off=392 inp_off=18 v_failed=true sp=4
gpeg_engine.vhd:238:11:@5375ns:(report note): LOAD_OP: bc_offset=404 opcode=0x000003E4 isize=4
gpeg_engine.vhd:366:1:@5395ns:(report note): ANY
gpeg_engine.vhd:539:13:@5395ns:(report note): EXEC done: opcode=0x000003E4 bc_off=404 inp_off=18 v_failed=false sp=3
gpeg_engine.vhd:238:11:@5425ns:(report note): LOAD_OP: bc_offset=408 opcode=0x000403B4 isize=8
gpeg_engine.vhd:475:1:@5485ns:(report note): PARTIALCOMMIT
gpeg_engine.vhd:475:1:@5505ns:(report note): PARTIALCOMMIT
gpeg_engine.vhd:539:13:@5505ns:(report note): EXEC done: opcode=0x000403B4 bc_off=408 inp_off=19 v_failed=false sp=3
gpeg_engine.vhd:238:11:@5535ns:(report note): LOAD_OP: bc_offset=384 opcode=0x00040393 isize=8
gpeg_engine.vhd:445:1:@5585ns:(report note): CATCH
gpeg_engine.vhd:445:1:@5605ns:(report note): CATCH
gpeg_engine.vhd:539:13:@5605ns:(report note): EXEC done: opcode=0x00040393 bc_off=384 inp_off=19 v_failed=false sp=4
gpeg_engine.vhd:238:11:@5635ns:(report note): LOAD_OP: bc_offset=392 opcode=0x000403D7 isize=8
gpeg_engine.vhd:375:1:@5715ns:(report note): CHAR
gpeg_engine.vhd:539:13:@5715ns:(report note): EXEC done: opcode=0x000403D7 bc_off=392 inp_off=19 v_failed=true sp=4
gpeg_engine.vhd:238:11:@5775ns:(report note): LOAD_OP: bc_offset=404 opcode=0x000003E4 isize=4
gpeg_engine.vhd:366:1:@5795ns:(report note): ANY
gpeg_engine.vhd:539:13:@5795ns:(report note): EXEC done: opcode=0x000003E4 bc_off=404 inp_off=19 v_failed=false sp=3
gpeg_engine.vhd:238:11:@5825ns:(report note): LOAD_OP: bc_offset=408 opcode=0x000403B4 isize=8
gpeg_engine.vhd:475:1:@5885ns:(report note): PARTIALCOMMIT
gpeg_engine.vhd:475:1:@5905ns:(report note): PARTIALCOMMIT
gpeg_engine.vhd:539:13:@5905ns:(report note): EXEC done: opcode=0x000403B4 bc_off=408 inp_off=20 v_failed=false sp=3
gpeg_engine.vhd:238:11:@5935ns:(report note): LOAD_OP: bc_offset=384 opcode=0x00040393 isize=8
gpeg_engine.vhd:445:1:@5985ns:(report note): CATCH
gpeg_engine.vhd:445:1:@6005ns:(report note): CATCH
gpeg_engine.vhd:539:13:@6005ns:(report note): EXEC done: opcode=0x00040393 bc_off=384 inp_off=20 v_failed=false sp=4
gpeg_engine.vhd:238:11:@6035ns:(report note): LOAD_OP: bc_offset=392 opcode=0x000403D7 isize=8
gpeg_engine.vhd:375:1:@6115ns:(report note): CHAR
gpeg_engine.vhd:539:13:@6115ns:(report note): EXEC done: opcode=0x000403D7 bc_off=392 inp_off=20 v_failed=false sp=4
gpeg_engine.vhd:238:11:@6145ns:(report note): LOAD_OP: bc_offset=400 opcode=0x00000390 isize=4
gpeg_engine.vhd:508:1:@6175ns:(report note): FAILTWICE
gpeg_engine.vhd:539:13:@6175ns:(report note): EXEC done: opcode=0x00000390 bc_off=400 inp_off=21 v_failed=true sp=3
gpeg_engine.vhd:238:11:@6235ns:(report note): LOAD_OP: bc_offset=416 opcode=0x000403D7 isize=8
gpeg_engine.vhd:375:1:@6315ns:(report note): CHAR
gpeg_engine.vhd:539:13:@6315ns:(report note): EXEC done: opcode=0x000403D7 bc_off=416 inp_off=20 v_failed=false sp=2
gpeg_engine.vhd:238:11:@6345ns:(report note): LOAD_OP: bc_offset=424 opcode=0x000003A0 isize=4
gpeg_engine.vhd:435:1:@6375ns:(report note): RET
gpeg_engine.vhd:539:13:@6375ns:(report note): EXEC done: opcode=0x000003A0 bc_off=424 inp_off=21 v_failed=false sp=1
gpeg_engine.vhd:238:11:@6405ns:(report note): LOAD_OP: bc_offset=56 opcode=0x00040382 isize=8
gpeg_engine.vhd:420:1:@6455ns:(report note): CALL
gpeg_engine.vhd:420:1:@6475ns:(report note): CALL
gpeg_engine.vhd:539:13:@6475ns:(report note): EXEC done: opcode=0x00040382 bc_off=56 inp_off=21 v_failed=false sp=2
gpeg_engine.vhd:238:11:@6505ns:(report note): LOAD_OP: bc_offset=116 opcode=0x000403D7 isize=8
gpeg_engine.vhd:375:1:@6585ns:(report note): CHAR
gpeg_engine.vhd:539:13:@6585ns:(report note): EXEC done: opcode=0x000403D7 bc_off=116 inp_off=21 v_failed=false sp=2
gpeg_engine.vhd:238:11:@6615ns:(report note): LOAD_OP: bc_offset=124 opcode=0x000003A0 isize=4
gpeg_engine.vhd:435:1:@6645ns:(report note): RET
gpeg_engine.vhd:539:13:@6645ns:(report note): EXEC done: opcode=0x000003A0 bc_off=124 inp_off=22 v_failed=false sp=1
gpeg_engine.vhd:238:11:@6675ns:(report note): LOAD_OP: bc_offset=64 opcode=0x00040382 isize=8
gpeg_engine.vhd:420:1:@6725ns:(report note): CALL
gpeg_engine.vhd:420:1:@6745ns:(report note): CALL
gpeg_engine.vhd:539:13:@6745ns:(report note): EXEC done: opcode=0x00040382 bc_off=64 inp_off=22 v_failed=false sp=2
gpeg_engine.vhd:238:11:@6775ns:(report note): LOAD_OP: bc_offset=428 opcode=0x00040393 isize=8
gpeg_engine.vhd:445:1:@6825ns:(report note): CATCH
gpeg_engine.vhd:445:1:@6845ns:(report note): CATCH
gpeg_engine.vhd:539:13:@6845ns:(report note): EXEC done: opcode=0x00040393 bc_off=428 inp_off=22 v_failed=false sp=3
gpeg_engine.vhd:238:11:@6875ns:(report note): LOAD_OP: bc_offset=436 opcode=0x000403D7 isize=8
gpeg_engine.vhd:375:1:@6955ns:(report note): CHAR
gpeg_engine.vhd:539:13:@6955ns:(report note): EXEC done: opcode=0x000403D7 bc_off=436 inp_off=22 v_failed=false sp=3
gpeg_engine.vhd:238:11:@6985ns:(report note): LOAD_OP: bc_offset=444 opcode=0x000403D7 isize=8
gpeg_engine.vhd:375:1:@7065ns:(report note): CHAR
gpeg_engine.vhd:539:13:@7065ns:(report note): EXEC done: opcode=0x000403D7 bc_off=444 inp_off=23 v_failed=false sp=3
gpeg_engine.vhd:238:11:@7095ns:(report note): LOAD_OP: bc_offset=452 opcode=0x000403D7 isize=8
gpeg_engine.vhd:375:1:@7175ns:(report note): CHAR
gpeg_engine.vhd:539:13:@7175ns:(report note): EXEC done: opcode=0x000403D7 bc_off=452 inp_off=24 v_failed=false sp=3
gpeg_engine.vhd:238:11:@7205ns:(report note): LOAD_OP: bc_offset=460 opcode=0x000403D7 isize=8
gpeg_engine.vhd:375:1:@7285ns:(report note): CHAR
gpeg_engine.vhd:539:13:@7285ns:(report note): EXEC done: opcode=0x000403D7 bc_off=460 inp_off=25 v_failed=false sp=3
gpeg_engine.vhd:238:11:@7315ns:(report note): LOAD_OP: bc_offset=468 opcode=0x000403D7 isize=8
gpeg_engine.vhd:375:1:@7395ns:(report note): CHAR
gpeg_engine.vhd:539:13:@7395ns:(report note): EXEC done: opcode=0x000403D7 bc_off=468 inp_off=26 v_failed=false sp=3
gpeg_engine.vhd:238:11:@7425ns:(report note): LOAD_OP: bc_offset=476 opcode=0x000403D7 isize=8
gpeg_engine.vhd:375:1:@7505ns:(report note): CHAR
gpeg_engine.vhd:539:13:@7505ns:(report note): EXEC done: opcode=0x000403D7 bc_off=476 inp_off=27 v_failed=false sp=3
gpeg_engine.vhd:238:11:@7535ns:(report note): LOAD_OP: bc_offset=484 opcode=0x000403D7 isize=8
gpeg_engine.vhd:375:1:@7615ns:(report note): CHAR
gpeg_engine.vhd:539:13:@7615ns:(report note): EXEC done: opcode=0x000403D7 bc_off=484 inp_off=28 v_failed=false sp=3
gpeg_engine.vhd:238:11:@7645ns:(report note): LOAD_OP: bc_offset=492 opcode=0x00040336 isize=8
gpeg_engine.vhd:457:1:@7705ns:(report note): COMMIT
gpeg_engine.vhd:539:13:@7705ns:(report note): EXEC done: opcode=0x00040336 bc_off=492 inp_off=29 v_failed=false sp=2
gpeg_engine.vhd:238:11:@7735ns:(report note): LOAD_OP: bc_offset=540 opcode=0x000003A0 isize=4
gpeg_engine.vhd:435:1:@7765ns:(report note): RET
gpeg_engine.vhd:539:13:@7765ns:(report note): EXEC done: opcode=0x000003A0 bc_off=540 inp_off=29 v_failed=false sp=1
gpeg_engine.vhd:238:11:@7795ns:(report note): LOAD_OP: bc_offset=72 opcode=0x00040382 isize=8
gpeg_engine.vhd:420:1:@7845ns:(report note): CALL
gpeg_engine.vhd:420:1:@7865ns:(report note): CALL
gpeg_engine.vhd:539:13:@7865ns:(report note): EXEC done: opcode=0x00040382 bc_off=72 inp_off=29 v_failed=false sp=2
gpeg_engine.vhd:238:11:@7895ns:(report note): LOAD_OP: bc_offset=116 opcode=0x000403D7 isize=8
gpeg_engine.vhd:375:1:@7975ns:(report note): CHAR
gpeg_engine.vhd:539:13:@7975ns:(report note): EXEC done: opcode=0x000403D7 bc_off=116 inp_off=29 v_failed=false sp=2
gpeg_engine.vhd:238:11:@8005ns:(report note): LOAD_OP: bc_offset=124 opcode=0x000003A0 isize=4
gpeg_engine.vhd:435:1:@8035ns:(report note): RET
gpeg_engine.vhd:539:13:@8035ns:(report note): EXEC done: opcode=0x000003A0 bc_off=124 inp_off=30 v_failed=false sp=1
gpeg_engine.vhd:238:11:@8065ns:(report note): LOAD_OP: bc_offset=80 opcode=0x00040382 isize=8
gpeg_engine.vhd:420:1:@8115ns:(report note): CALL
gpeg_engine.vhd:420:1:@8135ns:(report note): CALL
gpeg_engine.vhd:539:13:@8135ns:(report note): EXEC done: opcode=0x00040382 bc_off=80 inp_off=30 v_failed=false sp=2
gpeg_engine.vhd:238:11:@8165ns:(report note): LOAD_OP: bc_offset=544 opcode=0x00080356 isize=12
gpeg_engine.vhd:491:1:@8245ns:(report note): COUNTER
gpeg_engine.vhd:238:11:@8285ns:(report note): LOAD_OP: bc_offset=556 opcode=0x002003CA isize=36
gpeg_engine.vhd:407:1:@8365ns:(report note): SET
gpeg_engine.vhd:539:13:@8365ns:(report note): EXEC done: opcode=0x002003CA bc_off=556 inp_off=30 v_failed=false sp=2
gpeg_engine.vhd:238:11:@8395ns:(report note): LOAD_OP: bc_offset=592 opcode=0x00080321 isize=12
gpeg_engine.vhd:495:1:@8475ns:(report note): CONDJUMP
gpeg_engine.vhd:238:11:@8525ns:(report note): LOAD_OP: bc_offset=556 opcode=0x002003CA isize=36
gpeg_engine.vhd:407:1:@8605ns:(report note): SET
gpeg_engine.vhd:539:13:@8605ns:(report note): EXEC done: opcode=0x002003CA bc_off=556 inp_off=31 v_failed=false sp=2
gpeg_engine.vhd:238:11:@8635ns:(report note): LOAD_OP: bc_offset=592 opcode=0x00080321 isize=12
gpeg_engine.vhd:495:1:@8715ns:(report note): CONDJUMP
gpeg_engine.vhd:238:11:@8765ns:(report note): LOAD_OP: bc_offset=556 opcode=0x002003CA isize=36
gpeg_engine.vhd:407:1:@8845ns:(report note): SET
gpeg_engine.vhd:539:13:@8845ns:(report note): EXEC done: opcode=0x002003CA bc_off=556 inp_off=32 v_failed=false sp=2
gpeg_engine.vhd:238:11:@8875ns:(report note): LOAD_OP: bc_offset=592 opcode=0x00080321 isize=12
gpeg_engine.vhd:495:1:@8955ns:(report note): CONDJUMP
gpeg_engine.vhd:238:11:@9005ns:(report note): LOAD_OP: bc_offset=556 opcode=0x002003CA isize=36
gpeg_engine.vhd:407:1:@9085ns:(report note): SET
gpeg_engine.vhd:539:13:@9085ns:(report note): EXEC done: opcode=0x002003CA bc_off=556 inp_off=33 v_failed=false sp=2
gpeg_engine.vhd:238:11:@9115ns:(report note): LOAD_OP: bc_offset=592 opcode=0x00080321 isize=12
gpeg_engine.vhd:495:1:@9195ns:(report note): CONDJUMP
gpeg_engine.vhd:238:11:@9245ns:(report note): LOAD_OP: bc_offset=556 opcode=0x002003CA isize=36
gpeg_engine.vhd:407:1:@9325ns:(report note): SET
gpeg_engine.vhd:539:13:@9325ns:(report note): EXEC done: opcode=0x002003CA bc_off=556 inp_off=34 v_failed=false sp=2
gpeg_engine.vhd:238:11:@9355ns:(report note): LOAD_OP: bc_offset=592 opcode=0x00080321 isize=12
gpeg_engine.vhd:495:1:@9435ns:(report note): CONDJUMP
gpeg_engine.vhd:238:11:@9495ns:(report note): LOAD_OP: bc_offset=604 opcode=0x000003A0 isize=4
gpeg_engine.vhd:435:1:@9525ns:(report note): RET
gpeg_engine.vhd:539:13:@9525ns:(report note): EXEC done: opcode=0x000003A0 bc_off=604 inp_off=35 v_failed=false sp=1
